<?xml version="1.0" encoding="UTF-8" standalone="no"?>
<!-- Created with Inkscape (http://www.inkscape.org/) -->

<svg
   xmlns:osb="http://www.openswatchbook.org/uri/2009/osb"
   xmlns:dc="http://purl.org/dc/elements/1.1/"
   xmlns:cc="http://creativecommons.org/ns#"
   xmlns:rdf="http://www.w3.org/1999/02/22-rdf-syntax-ns#"
   xmlns:svg="http://www.w3.org/2000/svg"
   xmlns="http://www.w3.org/2000/svg"
   xmlns:sodipodi="http://sodipodi.sourceforge.net/DTD/sodipodi-0.dtd"
   xmlns:inkscape="http://www.inkscape.org/namespaces/inkscape"
   id="svg4311"
   version="1.1"
   inkscape:version="0.92.3 (2405546, 2018-03-11)"
   width="16cm"
   height="10.24378cm"
   viewBox="0 0 566.92915 362.96858"
   sodipodi:docname="Network-com.svg"
   style="enable-background:new">
  <metadata
     id="metadata4317">
    <rdf:RDF>
      <cc:Work
         rdf:about="">
        <dc:format>image/svg+xml</dc:format>
        <dc:type
           rdf:resource="http://purl.org/dc/dcmitype/StillImage" />
        <dc:title></dc:title>
      </cc:Work>
    </rdf:RDF>
  </metadata>
  <defs
     id="defs4315">
    <linearGradient
       id="linearGradient4348"
       osb:paint="solid">
      <stop
         style="stop-color:#3b6a70;stop-opacity:1;"
         offset="0"
         id="stop4350" />
    </linearGradient>
    <linearGradient
       id="linearGradient4336"
       osb:paint="gradient">
      <stop
         style="stop-color:#1dcdd5;stop-opacity:1;"
         offset="0"
         id="stop4338" />
      <stop
         style="stop-color:#1dcdd5;stop-opacity:0;"
         offset="1"
         id="stop4340" />
    </linearGradient>
    <filter
       inkscape:collect="always"
       style="color-interpolation-filters:sRGB"
       id="filter4707">
      <feBlend
         inkscape:collect="always"
         mode="lighten"
         in2="BackgroundImage"
         id="feBlend4709" />
    </filter>
  </defs>
  <sodipodi:namedview
     pagecolor="#ffffff"
     bordercolor="#666666"
     borderopacity="1"
     objecttolerance="10"
     gridtolerance="10"
     guidetolerance="10"
     inkscape:pageopacity="0"
     inkscape:pageshadow="2"
     inkscape:window-width="1676"
     inkscape:window-height="1027"
     id="namedview4313"
     showgrid="false"
     showguides="true"
     inkscape:guide-bbox="true"
     inkscape:zoom="1.3625733"
     inkscape:cx="84.066979"
     inkscape:cy="295.8104"
     inkscape:window-x="236"
     inkscape:window-y="19"
     inkscape:window-maximized="0"
     inkscape:current-layer="layer1"
     units="cm">
    <sodipodi:guide
       position="51.618795,-0.70710678"
       orientation="0,1"
       id="guide4607"
       inkscape:locked="false" />
    <sodipodi:guide
       position="18.384776,87.681241"
       orientation="1,0"
       id="guide4609"
       inkscape:locked="false" />
    <sodipodi:guide
       position="989.50755,443.70951"
       orientation="1,0"
       id="guide4617"
       inkscape:locked="false" />
    <sodipodi:guide
       position="95.0625,457.5"
       orientation="1,0"
       id="guide4619"
       inkscape:locked="false" />
    <sodipodi:guide
       position="408.375,26.625"
       orientation="0,1"
       id="guide4627"
       inkscape:locked="false" />
    <sodipodi:guide
       position="394.25,599.5"
       orientation="0,1"
       id="guide4629"
       inkscape:locked="false" />
  </sodipodi:namedview>
  <g
     inkscape:groupmode="layer"
     id="layer1"
     inkscape:label="Mod"
     style="display:inline;filter:url(#filter4707)"
     transform="translate(0,-248.03151)">
    <path
       style="opacity:0.51000001;fill:#ffffff;fill-opacity:1;stroke:#000000;stroke-width:0.93359655;stroke-miterlimit:4;stroke-dasharray:0.93359652, 0.93359652;stroke-dashoffset:0;stroke-opacity:1"
       d="M 565.34443,341.61511 44.370231,341.38505"
       id="path4621"
       inkscape:connector-curvature="0" />
    <path
       style="opacity:0.51000001;fill:#ffffff;fill-opacity:1;stroke:#000000;stroke-width:0.93260062;stroke-miterlimit:4;stroke-dasharray:0.93260065, 0.93260065;stroke-dashoffset:0;stroke-opacity:1"
       d="m 44.409505,473.35821 520.909185,0.15444"
       id="path4615"
       inkscape:connector-curvature="0" />
    <path
       style="opacity:0.51000001;fill:#ffffff;fill-opacity:1;stroke:#000000;stroke-width:0.93256313;stroke-miterlimit:4;stroke-dasharray:0.93256312, 0.93256312;stroke-dashoffset:0;stroke-opacity:1"
       d="m 221.0311,261.47439 0.0779,333.71552"
       id="path4613"
       inkscape:connector-curvature="0" />
    <ellipse
       style="opacity:1;fill:#ffc1da;fill-opacity:1;stroke:#ff9ec5;stroke-width:0.88008988;stroke-miterlimit:4;stroke-dasharray:none;stroke-opacity:1"
       id="path4330"
       cx="455.31772"
       cy="530.72382"
       rx="42.928085"
       ry="43.19075" />
    <text
       xml:space="preserve"
       style="font-style:normal;font-weight:normal;line-height:0%;font-family:sans-serif;letter-spacing:0px;word-spacing:0px;fill:#000000;fill-opacity:1;stroke:none;stroke-width:1px;stroke-linecap:butt;stroke-linejoin:miter;stroke-opacity:1"
       x="429.40149"
       y="536.94019"
       id="text4354"><tspan
         sodipodi:role="line"
         id="tspan4356"
         x="429.40149"
         y="536.94019"
         style="font-size:16.017519px;line-height:0.50999999;fill:#ffffff">LPWAN</tspan></text>
    <ellipse
       style="opacity:0.51000001;fill:#ffffff;fill-opacity:1;stroke:#ff9ec5;stroke-width:0.93317306;stroke-miterlimit:4;stroke-dasharray:none;stroke-opacity:1"
       id="path4362"
       cx="528.33844"
       cy="416.02695"
       rx="28.69145"
       ry="28.954115" />
    <text
       xml:space="preserve"
       style="font-style:normal;font-weight:normal;line-height:0%;font-family:sans-serif;letter-spacing:0px;word-spacing:0px;fill:#000000;fill-opacity:1;stroke:none;stroke-width:1px;stroke-linecap:butt;stroke-linejoin:miter;stroke-opacity:1"
       x="511.87823"
       y="421.3678"
       id="text4366"><tspan
         sodipodi:role="line"
         id="tspan4368"
         x="511.87823"
         y="421.3678"
         style="font-size:11.64910507px;line-height:1.25">VSAT</tspan></text>
    <ellipse
       style="opacity:1;fill:#ffffff;fill-opacity:1;stroke:#ff9ec5;stroke-width:0.93317306;stroke-miterlimit:4;stroke-dasharray:none;stroke-opacity:1"
       id="path4362-3-7-5"
       cx="315.05484"
       cy="405.78302"
       rx="28.69145"
       ry="28.954115" />
    <ellipse
       style="opacity:1;fill:#ffffff;fill-opacity:1;stroke:#ff9ec5;stroke-width:0.93317306;stroke-miterlimit:4;stroke-dasharray:none;stroke-opacity:1"
       id="path4362-3-7"
       cx="308.40067"
       cy="370.98804"
       rx="28.69145"
       ry="28.954115" />
    <ellipse
       style="opacity:1;fill:#ffffff;fill-opacity:1;stroke:#ff9ec5;stroke-width:0.93317306;stroke-miterlimit:4;stroke-dasharray:none;stroke-opacity:1"
       id="path4362-3-6"
       cx="297.0704"
       cy="326.15994"
       rx="28.69145"
       ry="28.954115" />
    <ellipse
       style="opacity:1;fill:#ffffff;fill-opacity:1;stroke:#ff9ec5;stroke-width:0.93309325;stroke-miterlimit:4;stroke-dasharray:none;stroke-dashoffset:0;stroke-opacity:1"
       id="path4362-3"
       cx="283.35022"
       cy="283.49481"
       rx="28.69145"
       ry="28.954115" />
    <text
       xml:space="preserve"
       style="font-style:normal;font-weight:normal;line-height:0%;font-family:sans-serif;letter-spacing:0px;word-spacing:0px;fill:#000000;fill-opacity:1;stroke:none;stroke-width:1px;stroke-linecap:butt;stroke-linejoin:miter;stroke-opacity:1"
       x="276.53073"
       y="287.40884"
       id="text4421"><tspan
         sodipodi:role="line"
         id="tspan4423"
         x="276.53073"
         y="287.40884"
         style="font-size:10.19296646px;line-height:1.25">5G</tspan></text>
    <ellipse
       style="opacity:1;fill:#ffffff;fill-opacity:1;stroke:#ff9ec5;stroke-width:0.93317306;stroke-miterlimit:4;stroke-dasharray:none;stroke-opacity:1"
       id="path4362-3-9"
       cx="205.78641"
       cy="524.85767"
       rx="28.69145"
       ry="28.954115" />
    <ellipse
       style="opacity:1;fill:#ffffff;fill-opacity:1;stroke:#ff9ec5;stroke-width:1.16464794;stroke-miterlimit:4;stroke-dasharray:none;stroke-opacity:1"
       id="path4362-3-3"
       cx="96.517952"
       cy="539.74194"
       rx="35.580101"
       ry="36.368095" />
    <ellipse
       style="opacity:1;fill:#ffffff;fill-opacity:1;stroke:#ff9ec5;stroke-width:0.93317306;stroke-miterlimit:4;stroke-dasharray:none;stroke-opacity:1"
       id="path4362-3-70"
       cx="125.58615"
       cy="475.47672"
       rx="28.69145"
       ry="28.954115" />
    <text
       xml:space="preserve"
       style="font-style:normal;font-weight:normal;line-height:0%;font-family:sans-serif;letter-spacing:0px;word-spacing:0px;fill:#000000;fill-opacity:1;stroke:none;stroke-width:1px;stroke-linecap:butt;stroke-linejoin:miter;stroke-opacity:1"
       x="75.132523"
       y="543.49841"
       id="text4519"><tspan
         sodipodi:role="line"
         id="tspan4521"
         x="75.132523"
         y="543.49841"
         style="font-size:10.19296646px;line-height:1.25">RFID/NFC</tspan></text>
    <text
       xml:space="preserve"
       style="font-style:normal;font-weight:normal;line-height:0%;font-family:sans-serif;letter-spacing:0px;word-spacing:0px;fill:#000000;fill-opacity:1;stroke:none;stroke-width:1px;stroke-linecap:butt;stroke-linejoin:miter;stroke-opacity:1"
       x="206.59068"
       y="524.87305"
       id="text4523"><tspan
         sodipodi:role="line"
         id="tspan4525"
         x="206.59068"
         y="524.87305"
         style="font-size:8.7368288px;line-height:1.25;text-align:center;text-anchor:middle">WBAN</tspan><tspan
         sodipodi:role="line"
         x="206.59068"
         y="535.79407"
         id="tspan4527"
         style="font-size:8.7368288px;line-height:1.25;text-align:center;text-anchor:middle">802.15.3</tspan></text>
    <text
       xml:space="preserve"
       style="font-style:normal;font-weight:normal;line-height:0%;font-family:sans-serif;letter-spacing:0px;word-spacing:0px;fill:#000000;fill-opacity:1;stroke:none;stroke-width:1px;stroke-linecap:butt;stroke-linejoin:miter;stroke-opacity:1"
       x="-0.52526379"
       y="298.51334"
       id="text4583"><tspan
         sodipodi:role="line"
         id="tspan4585"
         x="-0.52526379"
         y="298.51334"
         style="font-size:14.56138039px;line-height:1.25">High BW</tspan></text>
    <text
       xml:space="preserve"
       style="font-style:normal;font-weight:normal;line-height:0%;font-family:sans-serif;letter-spacing:0px;word-spacing:0px;fill:#000000;fill-opacity:1;stroke:none;stroke-width:1px;stroke-linecap:butt;stroke-linejoin:miter;stroke-opacity:1"
       x="-1.0097769"
       y="407.08844"
       id="text4587"><tspan
         sodipodi:role="line"
         id="tspan4589"
         x="-1.0097769"
         y="407.08844"
         style="font-size:14.56138039px;line-height:1.25">Medium BW</tspan></text>
    <text
       xml:space="preserve"
       style="font-style:normal;font-weight:normal;line-height:0%;font-family:sans-serif;letter-spacing:0px;word-spacing:0px;fill:#000000;fill-opacity:1;stroke:none;stroke-width:1px;stroke-linecap:butt;stroke-linejoin:miter;stroke-opacity:1"
       x="-1.1944882"
       y="540.79791"
       id="text4591"><tspan
         sodipodi:role="line"
         id="tspan4593"
         x="-1.1944882"
         y="540.79791"
         style="font-size:14.56138039px;line-height:1.25">Low BW</tspan></text>
    <text
       xml:space="preserve"
       style="font-style:normal;font-weight:normal;line-height:0%;font-family:sans-serif;letter-spacing:0px;word-spacing:0px;fill:#000000;fill-opacity:1;stroke:none;stroke-width:1px;stroke-linecap:butt;stroke-linejoin:miter;stroke-opacity:1"
       x="84.511337"
       y="607.97119"
       id="text4595"><tspan
         sodipodi:role="line"
         id="tspan4597"
         x="84.511337"
         y="607.97119"
         style="font-size:14.56138039px;line-height:1.25">Short Range</tspan></text>
    <text
       xml:space="preserve"
       style="font-style:normal;font-weight:normal;line-height:0%;font-family:sans-serif;letter-spacing:0px;word-spacing:0px;fill:#000000;fill-opacity:1;stroke:none;stroke-width:1px;stroke-linecap:butt;stroke-linejoin:miter;stroke-opacity:1"
       x="245.79219"
       y="607.97827"
       id="text4599"><tspan
         sodipodi:role="line"
         id="tspan4601"
         x="245.79219"
         y="607.97827"
         style="font-size:14.56138039px;line-height:1.25">Medium Range</tspan></text>
    <text
       xml:space="preserve"
       style="font-style:normal;font-weight:normal;line-height:0%;font-family:sans-serif;letter-spacing:0px;word-spacing:0px;fill:#000000;fill-opacity:1;stroke:none;stroke-width:1px;stroke-linecap:butt;stroke-linejoin:miter;stroke-opacity:1"
       x="434.57156"
       y="607.92047"
       id="text4603"><tspan
         sodipodi:role="line"
         id="tspan4605"
         x="434.57156"
         y="607.92047"
         style="font-size:14.56138039px;line-height:1.25">Long Range</tspan></text>
    <ellipse
       style="opacity:1;fill:#ffffff;fill-opacity:1;stroke:#ff9ec5;stroke-width:0.93317306;stroke-miterlimit:4;stroke-dasharray:none;stroke-opacity:1"
       id="path4362-3-2"
       cx="205.78642"
       cy="296.86478"
       rx="28.69145"
       ry="28.954115" />
    <ellipse
       style="opacity:1;fill:#ffffff;fill-opacity:1;stroke:#ff9ec5;stroke-width:0.93317306;stroke-miterlimit:4;stroke-dasharray:none;stroke-opacity:1"
       id="path4362-3-9-6"
       cx="323.56564"
       cy="554.69421"
       rx="28.69145"
       ry="28.954115" />
    <ellipse
       style="opacity:1;fill:#ffffff;fill-opacity:1;stroke:#ff9ec5;stroke-width:1.16396546;stroke-miterlimit:4;stroke-dasharray:none;stroke-opacity:1"
       id="path4362-3-9-0"
       cx="296.94409"
       cy="481.39197"
       rx="35.881508"
       ry="36.020355" />
    <text
       xml:space="preserve"
       style="font-style:normal;font-weight:normal;line-height:0%;font-family:sans-serif;letter-spacing:0px;word-spacing:0px;fill:#000000;fill-opacity:1;stroke:none;stroke-width:1px;stroke-linecap:butt;stroke-linejoin:miter;stroke-opacity:1"
       x="187.83122"
       y="288.7662"
       id="text4535"><tspan
         sodipodi:role="line"
         id="tspan4537"
         x="187.83122"
         y="288.7662"
         style="font-size:8.7368288px;line-height:1.25">802.11c</tspan><tspan
         sodipodi:role="line"
         x="187.83122"
         y="299.68726"
         id="tspan4541"
         style="font-size:8.7368288px;line-height:1.25">802.11ad</tspan><tspan
         sodipodi:role="line"
         x="187.83122"
         y="310.60828"
         id="tspan4545"
         style="font-size:8.7368288px;line-height:1.25">802.11n</tspan></text>
    <text
       xml:space="preserve"
       style="font-style:normal;font-weight:normal;line-height:0%;font-family:sans-serif;text-align:center;letter-spacing:0px;word-spacing:0px;text-anchor:middle;fill:#000000;fill-opacity:1;stroke:none;stroke-width:1px;stroke-linecap:butt;stroke-linejoin:miter;stroke-opacity:1"
       x="294.20987"
       y="479.02649"
       id="text4571"><tspan
         sodipodi:role="line"
         id="tspan4573"
         x="294.20987"
         y="479.02649"
         style="font-size:9.46489811px;line-height:1.25">ZigBee</tspan><tspan
         sodipodi:role="line"
         x="294.20987"
         y="490.8576"
         id="tspan4575"
         style="font-size:9.46489811px;line-height:1.25">802.15.4</tspan></text>
    <text
       xml:space="preserve"
       style="font-style:normal;font-weight:normal;line-height:0%;font-family:sans-serif;text-align:center;letter-spacing:0px;word-spacing:0px;text-anchor:middle;fill:#000000;fill-opacity:1;stroke:none;stroke-width:1px;stroke-linecap:butt;stroke-linejoin:miter;stroke-opacity:1"
       x="323.58069"
       y="554.03094"
       id="text4577"><tspan
         sodipodi:role="line"
         id="tspan4579"
         x="323.58069"
         y="554.03094"
         style="font-size:8.7368288px;line-height:1.25">WPAN</tspan><tspan
         sodipodi:role="line"
         x="323.58069"
         y="564.95197"
         id="tspan4581"
         style="font-size:8.7368288px;line-height:1.25">801.15.3</tspan></text>
    <ellipse
       style="opacity:1;fill:#ffffff;fill-opacity:1;stroke:#ff9ec5;stroke-width:1.39346051;stroke-miterlimit:4;stroke-dasharray:none;stroke-opacity:1"
       id="path4362-3-9-62"
       cx="190.37677"
       cy="378.64102"
       rx="42.995411"
       ry="43.08297" />
    <text
       xml:space="preserve"
       style="font-style:normal;font-weight:normal;line-height:0%;font-family:sans-serif;letter-spacing:0px;word-spacing:0px;fill:#000000;fill-opacity:1;stroke:none;stroke-width:1px;stroke-linecap:butt;stroke-linejoin:miter;stroke-opacity:1"
       x="171.51993"
       y="370.08533"
       id="text4535-6"><tspan
         sodipodi:role="line"
         id="tspan4537-1"
         x="171.51993"
         y="370.08533"
         style="font-size:9.46489811px;line-height:1.25">802.11a</tspan><tspan
         sodipodi:role="line"
         x="171.51993"
         y="381.91644"
         id="tspan4541-8"
         style="font-size:9.46489811px;line-height:1.25">802.11b</tspan><tspan
         sodipodi:role="line"
         x="171.51993"
         y="393.74756"
         id="tspan4545-7"
         style="font-size:9.46489811px;line-height:1.25">802.11g</tspan></text>
    <text
       xml:space="preserve"
       style="font-style:normal;font-weight:normal;line-height:0%;font-family:sans-serif;letter-spacing:0px;word-spacing:0px;fill:#000000;fill-opacity:1;stroke:none;stroke-width:1px;stroke-linecap:butt;stroke-linejoin:miter;stroke-opacity:1"
       x="127.39818"
       y="473.65466"
       id="text4529"><tspan
         sodipodi:role="line"
         id="tspan4531"
         x="127.39818"
         y="473.65466"
         style="font-size:9.46489811px;line-height:1.25;text-align:center;text-anchor:middle">BlueTooth</tspan><tspan
         sodipodi:role="line"
         x="127.39818"
         y="485.48578"
         id="tspan4533"
         style="font-size:9.46489811px;line-height:1.25;text-align:center;text-anchor:middle">802.153</tspan></text>
    <text
       xml:space="preserve"
       style="font-style:normal;font-weight:normal;line-height:0%;font-family:sans-serif;letter-spacing:0px;word-spacing:0px;fill:#000000;fill-opacity:1;stroke:none;stroke-width:1px;stroke-linecap:butt;stroke-linejoin:miter;stroke-opacity:1"
       x="291.96588"
       y="329.59225"
       id="text4421-3"><tspan
         sodipodi:role="line"
         id="tspan4423-5"
         x="291.96588"
         y="329.59225"
         style="font-size:10.19296646px;line-height:1.25">4G</tspan></text>
    <text
       xml:space="preserve"
       style="font-style:normal;font-weight:normal;line-height:0%;font-family:sans-serif;letter-spacing:0px;word-spacing:0px;fill:#000000;fill-opacity:1;stroke:none;stroke-width:1px;stroke-linecap:butt;stroke-linejoin:miter;stroke-opacity:1"
       x="301.42178"
       y="371.96881"
       id="text4421-6"><tspan
         sodipodi:role="line"
         id="tspan4423-2"
         x="301.42178"
         y="371.96881"
         style="font-size:10.19296646px;line-height:1.25">3G</tspan></text>
    <text
       xml:space="preserve"
       style="font-style:normal;font-weight:normal;line-height:0%;font-family:sans-serif;letter-spacing:0px;word-spacing:0px;fill:#000000;fill-opacity:1;stroke:none;stroke-width:1px;stroke-linecap:butt;stroke-linejoin:miter;stroke-opacity:1"
       x="309.12665"
       y="410.84317"
       id="text4421-9"><tspan
         sodipodi:role="line"
         id="tspan4423-1"
         x="309.12665"
         y="410.84317"
         style="font-size:10.19296646px;line-height:1.25">2G</tspan></text>
  </g>
  <g
     inkscape:groupmode="layer"
     id="layer2"
     inkscape:label="Frecce"
     transform="translate(0,-248.03151)">
    <path
       style="opacity:0.51000001;fill:#ffffff;fill-opacity:1;stroke:#000000;stroke-width:0.92951792;stroke-miterlimit:4;stroke-dasharray:0.92951786, 0.92951786;stroke-dashoffset:0;stroke-opacity:1"
       d="M 394.98965,595.17243 394.88671,261.48302"
       id="path4611"
       inkscape:connector-curvature="0" />
  </g>
</svg>
